"be","verbal_grammar"
"brih","base grammar"
"bzot","bottled"
"ca","hi"
"crin","admiration"
"cu","if"
"de","distributive suffix"
"djan","giant"
"do","number class"
"drec","dissection"
"fe","finally"
"fi","return"
"frak","repeatedly"
"gi","name class"
"gret","subtract"
"hbip","beer"
"hcan","hello"
"hcanli","hello."
"hcen","member"
"hfas","file"
"hfashnim","filename"
"hgut","count"
"hkak","accusative suffix"
"hlis","six"
"hnim","name"
"hnuc","number"
"hnunprif","neo-variable"
"hrut","argument"
"hs67k","redact"
"hsac","say"
"hsic","here"
"hsuk","source case"
"htac","destination case"
"htaf","strength"
"htek","library"
"hwac","world"
"hwap","eight"
"hwus","text"
"hyik","one"
"hyikplus","one plus"
"ka","accusative suffix"
"klun","accumulation"
"krin","cardinal"
"ksas","four"
"ksuh","declarative mood suffix"
"kwim","quiz"
"kwimhgut","quiz count"
"kwimhwus","quiz text"
"kyit","quoted"
"la","dependent clause"
"li","realis mood suffix"
"ma","destination suffix"
"mweh","completive aspect (await)"
"mwih","permissive mood suffix (let)"
"na","nominative suffix"
"no","negatory sufix"
"pe","aside (comment)"
"pi","surface suffix"
"plat","wall"
"plus","add"
"prah","end paragraph"
"prif","variable"
"psut","object"
"pyac","language"
"pyan","love"
"pyic","require"
"qris","english"
"qrishcan","english hello"
"ryan","translation"
"slis","series"
"so","source case suffix"
"syip","equally"
"tfeh","telic aspect (async)"
"ti","genitive case suffix"
"tlan","god"
"tlat","word"
"tlep","template"
"tloh","multiplicative case suffix"
"to","space context suffix"
"tsen","processing"
"tu","deontic mood (command)"
"twam","claim"
"twun","nine"
"tyac","read"
"tyin","three"
"tyut","two"
"wo","word suffix"
"yu","instrumental suffix"
"zi","quote affix"
"zron","zero"
"zyam","sang"
